Why people like Van Moof App in iTunes
…
## # A tibble: 4 x 9
##   id         userName  userUrl  version score title text     url   country
##   <chr>      <chr>     <chr>    <chr>   <int> <chr> <chr>    <chr> <chr>  
## 1 2531371669 Renral e https:/ 2.0         4 Almo "The UI http GB     
## 2 2402056860 Eurohuck https:/ 2.0         3 No m App is  http GB     
## 3 2401586850 Philippe https:/ 2.0         3 Need I likes http GB     
## 4 1750508484 urmelhino https:/ 1.6.1       5 Awes Sure, t http GB

reviews_nl <- read_json("reviews_nl.json") %>%  bind_rows()
reviews_nl$country <- "NL"
reviews_nl

## # A tibble: 51 x 9
##    id         userName  userUrl version score title text     url   country
##    <chr>      <chr>     <chr>   <chr>   <int> <chr> <chr>    <chr> <chr>  
##  1 1411168359 v.der Put https: 1.1         4 Ziet Ziet er http NL     
##  2 2810811915 janoejan https: 2.1.1       5 Work "Very c http NL     
##  3 2790315876 ArberSyl https: 2.1.1       3 Coul The app http NL     
##  4 2789350391 Bart-gym  https: 2.1.1       5 Wow! You don http NL     
##  5 2752766011 Eductrix  https: 2.1.1       5 Supe "Geweld http NL     
##  6 2694114414 Jaxx09    https: 2.1.1       2 Jamm De Blue http NL     
##  7 2662712317 JaapJanV https: 2.1         2 Hand Huh? Be http NL     
##  8 2648794485 Sunderju https: 2.1         4 Gebr Ik heb  http NL     
##  9 2599532212 ML 1963   https: 2.1         2 No c "After  http NL     
## 10 2557884204 Reinier  https: 2.0         2 Irri Sinds d http NL     
## # ... with 41 more rows
…
sparse_matrix <- as.data.frame(as.matrix(sparse_matrix))

sparse_matrix$userName <- rownames(sparse_matrix)

train_df <- left_join(x=sparse_matrix, y=reviews[,c("userName", "score")])

train_df %>% select(userName, score, fun, bike, app) %>% as_tibble()

## # A tibble: 70 x 5
##    userName        score   fun  bike   app
##    <chr>           <int> <dbl> <dbl> <dbl>
##  1 Peter Villevoye     4     0     0     8
##  2 Doc Sempai          4     0     0     2
##  3 Sunderjung12        4     0     0     0
##  4 AOdgaard            1     0     8     3
##  5 Navigaatniet        4     0     0     6
##  6 SanV                5     0     0     2
##  7 Bram sluiter        2     0     0     1
##  8 Aart1971            4     0     1     3
##  9 Ar.No.              4     0     0     0
## 10 D31337              4     0     0     3
## # ... with 60 more rows
…
